Predicting IMDB Ratings of Over 5000 Different Movies
…
## See spec(...) for full column specifications.

## Warning in rbind(names(probs), probs_f): number of columns of result is not
## a multiple of vector length (arg 1)

## Warning: 4 parsing failures.
## row # A tibble: 4 x 5 col     row col    expected   actual      file                 expected   <int> <chr>  <chr>      <chr>       <chr>                actual 1  2324 budget an integer 2400000000  'movie_metadata.csv' file 2  2989 budget an integer 12215500000 'movie_metadata.csv' row 3  3006 budget an integer 2500000000  'movie_metadata.csv' col 4  3860 budget an integer 4200000000  'movie_metadata.csv'

as_tibble(data)

## # A tibble: 5,043 x 28
##    color director_name    num_critic_for_rev~ duration director_facebook_~
##    <chr> <chr>                          <int>    <int>               <int>
##  1 Color James Cameron                    723      178                   0
##  2 Color Gore Verbinski                   302      169                 563
##  3 Color Sam Mendes                       602      148                   0
##  4 Color Christopher Nol~                 813      164               22000
##  5 <NA>  Doug Walker                       NA       NA                 131
##  6 Color Andrew Stanton                   462      132                 475
##  7 Color Sam Raimi                        392      156                   0
##  8 Color Nathan Greno                     324      100                  15
##  9 Color Joss Whedon                      635      141                   0
## 10 Color David Yates                      375      153                 282
## # ... with 5,033 more rows, and 23 more variables:
## #   actor_3_facebook_likes <int>, actor_2_name <chr>,
## #   actor_1_facebook_likes <int>, gross <int>, genres <chr>,
## #   actor_1_name <chr>, movie_title <chr>, num_voted_users <int>,
## #   cast_total_facebook_likes <int>, actor_3_name <chr>,
## #   facenumber_in_poster <int>, plot_keywords <chr>,
## #   movie_imdb_link <chr>, num_user_for_reviews <int>, language <chr>,
## #   country <chr>, content_rating <chr>, budget <int>, title_year <int>,
## #   actor_2_facebook_likes <int>, imdb_score <dbl>, aspect_ratio <dbl>,
…
  select(-plot_keywords) %>%          # Just some keywords about the movie
  select(-country) %>%                # We won't be using Country movie was made in
  select(-actor_2_facebook_likes) %>% # We already have total cast facebook likes, anyway
  select(-actor_3_facebook_likes) %>%
  select(-actor_2_name) %>%           # We won't deal with secondary actors (for now)
  select(-actor_3_name) %>%
  select(-movie_imdb_link) %>%        # Definitely don't need the IMDB link to the movie
  select(-content_rating) %>%         # We won't use the movie's content rating
  select(-num_critic_for_reviews) %>% # Number of user/critic reviewers doesn't pertain to us
  select(-num_user_for_reviews) %>%   
  select(-aspect_ratio) %>%           # Don't need the aspect ratio of the movie
  select(-language)                   # We won't do anything concerning the language of the movie
data

## # A tibble: 3,752 x 16
##    color director_name  duration director_faceboo~ actor_1_faceboo~  gross
##    <chr> <chr>             <int>             <int>            <int>  <int>
##  1 Color James Cameron       178                 0             1000 7.61e8
##  2 Color Gore Verbinski      169               563            40000 3.09e8
##  3 Color Sam Mendes          148                 0            11000 2.00e8
##  4 Color Christopher N~      164             22000            27000 4.48e8
##  5 Color Andrew Stanton      132               475              640 7.31e7
##  6 Color Sam Raimi           156                 0            24000 3.37e8
##  7 Color Nathan Greno        100                15              799 2.01e8
##  8 Color Joss Whedon         141                 0            26000 4.59e8
##  9 Color David Yates         153               282            25000 3.02e8
## 10 Color Zack Snyder         183                 0            15000 3.30e8
## # ... with 3,742 more rows, and 10 more variables: genres <chr>,
## #   actor_1_name <chr>, movie_title <chr>, num_voted_users <int>,
## #   cast_total_facebook_likes <int>, facenumber_in_poster <int>,
## #   budget <int>, title_year <int>, imdb_score <dbl>,
## #   movie_facebook_likes <int>
…
